%YAML 1.1
%TAG !u! tag:unity3d.com,2011:
--- !u!21 &-8715035749578609863
Material:
  serializedVersion: 6
  m_ObjectHideFlags: 0
  m_CorrespondingSourceObject: {fileID: 0}
  m_PrefabInstance: {fileID: 0}
  m_PrefabAsset: {fileID: 0}
  m_Name: Font Material
  m_Shader: {fileID: 10770, guid: 0000000000000000f000000000000000, type: 0}
  m_ShaderKeywords: 
  m_LightmapFlags: 4
  m_EnableInstancingVariants: 0
  m_DoubleSidedGI: 0
  m_CustomRenderQueue: -1
  stringTagMap: {}
  disabledShaderPasses: []
  m_SavedProperties:
    serializedVersion: 3
    m_TexEnvs:
    - _MainTex:
        m_Texture: {fileID: 2800000, guid: 8476b05ded973f249ac6905b500f8b71, type: 3}
        m_Scale: {x: 1, y: 1}
        m_Offset: {x: 0, y: 0}
    m_Floats:
    - _ColorMask: 15
    - _Stencil: 0
    - _StencilComp: 8
    - _StencilOp: 0
    - _StencilReadMask: 255
    - _StencilWriteMask: 255
    - _UseUIAlphaClip: 0
    m_Colors:
    - _Color: {r: 1, g: 1, b: 1, a: 1}
  m_BuildTextureStacks: []
--- !u!128 &12800000
Font:
  m_ObjectHideFlags: 0
  m_CorrespondingSourceObject: {fileID: 0}
  m_PrefabInstance: {fileID: 0}
  m_PrefabAsset: {fileID: 0}
  m_Name: 0123456789__
  serializedVersion: 5
  m_LineSpacing: 80
  m_DefaultMaterial: {fileID: -8715035749578609863}
  m_FontSize: 32
  m_Texture: {fileID: 0}
  m_AsciiStartOffset: 0
  m_Tracking: 0.7
  m_CharacterSpacing: 0
  m_CharacterPadding: 1
  m_ConvertCase: 0
  m_CharacterRects:
  - serializedVersion: 2
    index: 0
    uv:
      serializedVersion: 2
      x: 0
      y: 1
      width: 0
      height: 0
    vert:
      serializedVersion: 2
      x: 0
      y: 26
      width: 0
      height: 0
    advance: 0
    flipped: 0
  - serializedVersion: 2
    index: 48
    uv:
      serializedVersion: 2
      x: 0
      y: 0.090909116
      width: 0.07616708
      height: 0.84090906
    vert:
      serializedVersion: 2
      x: 0
      y: 4
      width: 31
      height: -37
    advance: 41
    flipped: 0
  - serializedVersion: 2
    index: 49
    uv:
      serializedVersion: 2
      x: 0.093366094
      y: 0.11363637
      width: 0.05159705
      height: 0.8181818
    vert:
      serializedVersion: 2
      x: 0
      y: 4
      width: 21
      height: -36
    advance: 31
    flipped: 0
  - serializedVersion: 2
    index: 50
    uv:
      serializedVersion: 2
      x: 0.16953316
      y: 0.11363637
      width: 0.06388205
      height: 0.8181818
    vert:
      serializedVersion: 2
      x: 0
      y: 4
      width: 26
      height: -36
    advance: 36
    flipped: 0
  - serializedVersion: 2
    index: 51
    uv:
      serializedVersion: 2
      x: 0.25307125
      y: 0.090909116
      width: 0.066339076
      height: 0.84090906
    vert:
      serializedVersion: 2
      x: 0
      y: 4
      width: 27
      height: -37
    advance: 37
    flipped: 0
  - serializedVersion: 2
    index: 52
    uv:
      serializedVersion: 2
      x: 0.33660933
      y: 0.11363637
      width: 0.073710084
      height: 0.8181818
    vert:
      serializedVersion: 2
      x: 0
      y: 4
      width: 30
      height: -36
    advance: 40
    flipped: 0
  - serializedVersion: 2
    index: 53
    uv:
      serializedVersion: 2
      x: 0.43243244
      y: 0.090909116
      width: 0.06142506
      height: 0.84090906
    vert:
      serializedVersion: 2
      x: 0
      y: 4
      width: 25
      height: -37
    advance: 35
    flipped: 0
  - serializedVersion: 2
    index: 54
    uv:
      serializedVersion: 2
      x: 0.5184275
      y: 0.090909116
      width: 0.06879604
      height: 0.84090906
    vert:
      serializedVersion: 2
      x: 0
      y: 4
      width: 28
      height: -37
    advance: 38
    flipped: 0
  - serializedVersion: 2
    index: 55
    uv:
      serializedVersion: 2
      x: 0.6068796
      y: 0.090909116
      width: 0.06388205
      height: 0.84090906
    vert:
      serializedVersion: 2
      x: 0
      y: 4
      width: 26
      height: -37
    advance: 36
    flipped: 0
  - serializedVersion: 2
    index: 56
    uv:
      serializedVersion: 2
      x: 0.6904177
      y: 0.090909116
      width: 0.0687961
      height: 0.84090906
    vert:
      serializedVersion: 2
      x: 0
      y: 4
      width: 28
      height: -37
    advance: 38
    flipped: 0
  - serializedVersion: 2
    index: 57
    uv:
      serializedVersion: 2
      x: 0.7813268
      y: 0.090909116
      width: 0.06879604
      height: 0.84090906
    vert:
      serializedVersion: 2
      x: 0
      y: 4
      width: 28
      height: -37
    advance: 38
    flipped: 0
  - serializedVersion: 2
    index: 58
    uv:
      serializedVersion: 2
      x: 0.8648649
      y: 0
      width: 0.04422605
      height: 0.75
    vert:
      serializedVersion: 2
      x: 0
      y: 2
      width: 18
      height: -33
    advance: 28
    flipped: 0
  - serializedVersion: 2
    index: 47
    uv:
      serializedVersion: 2
      x: 0.9262899
      y: 0
      width: 0.073710084
      height: 1
    vert:
      serializedVersion: 2
      x: 0
      y: 8
      width: 30
      height: -44
    advance: 40
    flipped: 0
  - serializedVersion: 2
    index: 32
    uv:
      serializedVersion: 2
      x: 0
      y: 1
      width: 0
      height: 0
    vert:
      serializedVersion: 2
      x: 0
      y: 26
      width: 0
      height: 0
    advance: 20
    flipped: 0
  - serializedVersion: 2
    index: 9
    uv:
      serializedVersion: 2
      x: 0
      y: 1
      width: 0
      height: 0
    vert:
      serializedVersion: 2
      x: 0
      y: 26
      width: 0
      height: 0
    advance: 160
    flipped: 0
  m_KerningValues: []
  m_PixelScale: 0.1
  m_FontData: 
  m_Ascent: 26
  m_Descent: -54
  m_DefaultStyle: 0
  m_FontNames: []
  m_FallbackFonts: []
  m_FontRenderingMode: 0
  m_UseLegacyBoundsCalculation: 0
  m_ShouldRoundAdvanceValue: 1
